vertex,location
1,Conakry
2,Conakry
3,Conakry
4,Conakry
5,Conakry
6,Conakry
7,Conakry
8,Conakry
9,Conakry
10,Conakry
11,Conakry
12,Conakry
13,Conakry
14,Conakry
15,Conakry
16,Conakry
17,Conakry
18,Conakry
19,Conakry
20,Conakry
21,Conakry
22,Conakry
23,Conakry
24,Conakry
25,Conakry
26,Conakry
27,Conakry
28,Conakry
29,Conakry
30,Conakry
31,Conakry
32,Conakry
33,Conakry
34,Boffa
35,Boffa
36,Boffa
37,Boffa
38,Boffa
39,Boffa
40,Boffa
41,Boffa
42,Boffa
43,Conakry
44,Conakry
45,Conakry
46,Conakry
47,Conakry
48,Conakry
49,Conakry
50,Conakry
51,Conakry
52,Conakry
53,Boffa
54,Conakry
55,Boffa
56,Conakry
57,Conakry
58,Conakry
59,Conakry
60,Conakry
61,Boffa
62,Conakry
63,Conakry
64,Boffa
65,Boffa
66,Boffa
67,Boffa
68,Boffa
69,Boffa
70,Conakry
71,Boffa
72,Boffa
73,Boffa
74,Conakry
75,Conakry
76,Conakry
77,Conakry
78,Conakry
79,Conakry
80,Conakry
81,Conakry
82,Conakry
83,Conakry
84,Conakry
85,Conakry
86,Conakry
87,Conakry
88,Conakry
89,Conakry
90,Conakry
91,Conakry
92,Conakry
93,Conakry
94,Telimele
95,Telimele
96,Telimele
97,Telimele
98,Telimele
99,Telimele
100,Telimele
101,Telimele
102,Telimele
103,Telimele
104,Telimele
105,Telimele
106,Telimele
107,Telimele
108,Telimele
109,Telimele
110,Telimele
111,Telimele
112,Telimele
113,Telimele
114,Telimele
115,Telimele
116,Telimele
117,Telimele
118,Telimele
119,Conakry
120,Conakry
121,Conakry
122,Conakry
123,Conakry
124,Conakry
125,Conakry
126,Conakry
127,Conakry
128,Conakry
129,Conakry
130,Conakry
131,Conakry
132,Conakry
133,Conakry
134,Conakry
135,Conakry
136,Conakry
137,Conakry
138,Conakry
139,Conakry
140,Conakry
141,Conakry
142,Conakry
143,Conakry
144,Conakry
145,Conakry
146,Conakry
147,Conakry
148,Conakry
149,Conakry
150,Conakry
151,Conakry
152,Conakry
