"","Country","Numeric","epi_week"
"1","Guinea",0,2013-12-30
"2","Guinea",0,2014-01-12
"3","Guinea",0,2014-01-19
"4","Guinea",0,2014-01-26
"5","Guinea",0,2014-02-02
"6","Guinea",0,2014-02-09
"7","Guinea",0,2014-02-16
"8","Guinea",0,2014-02-23
"9","Guinea",1,2014-03-02
"10","Guinea",2,2014-03-09
"11","Guinea",11,2014-03-16
"12","Guinea",11,2014-03-23
"13","Guinea",24,2014-03-30
"14","Guinea",21,2014-04-06
"15","Guinea",27,2014-04-13
"16","Guinea",16,2014-04-20
"17","Guinea",11,2014-04-27
"18","Guinea",3,2014-05-04
"19","Guinea",8,2014-05-11
"20","Guinea",6,2014-05-18
"21","Guinea",23,2014-05-25
"22","Guinea",36,2014-06-01
"23","Guinea",24,2014-06-08
"24","Guinea",29,2014-06-15
"25","Guinea",18,2014-06-22
"26","Guinea",22,2014-06-29
"27","Guinea",2,2014-07-06
"28","Guinea",5,2014-07-13
"29","Guinea",5,2014-07-20
"30","Guinea",32,2014-07-27
"31","Guinea",13,2014-08-03
"32","Guinea",21,2014-08-10
"33","Guinea",40,2014-08-17
"34","Guinea",75,2014-08-24
"35","Guinea",95,2014-08-31
"36","Guinea",101,2014-09-07
"37","Guinea",79,2014-09-14
"38","Guinea",81,2014-09-21
"39","Guinea",121,2014-09-28
"40","Guinea",96,2014-10-05
"41","Guinea",131,2014-10-12
"42","Guinea",110,2014-10-19
"43","Guinea",82,2014-10-26
"44","Guinea",90,2014-11-02
"45","Guinea",153,2014-11-09
"46","Guinea",93,2014-11-16
"47","Guinea",149,2014-11-23
"48","Guinea",85,2014-11-30
"49","Guinea",110,2014-12-07
"50","Guinea",75,2014-12-14
"51","Guinea",169,2014-12-21
"52","Guinea",103,2014-12-28
"53","Guinea",69,2014-12-29
"54","Guinea",42,2015-01-11
"55","Guinea",19,2015-01-18
"56","Guinea",32,2015-01-25
"57","Guinea",41,2015-02-01
"58","Guinea",64,2015-02-08
"59","Guinea",51,2015-02-15
"60","Guinea",37,2015-02-22
"61","Guinea",53,2015-03-01
"62","Guinea",58,2015-03-08
"63","Guinea",94,2015-03-15
"64","Guinea",44,2015-03-22
"65","Guinea",55,2015-03-29
"66","Guinea",21,2015-04-05
"67","Guinea",31,2015-04-12
"68","Guinea",16,2015-04-19
"69","Guinea",22,2015-04-26
"70","Guinea",9,2015-05-03
"71","Guinea",7,2015-05-10
"72","Guinea",27,2015-05-17
"73","Guinea",9,2015-05-24
"74","Guinea",13,2015-05-31
"75","Guinea",12,2015-06-07
"76","Guinea",10,2015-06-14
"77","Guinea",13,2015-06-21
"78","Guinea",11,2015-06-28
"79","Guinea",18,2015-07-05
"80","Guinea",13,2015-07-12
"81","Guinea",22,2015-07-19
"82","Guinea",4,2015-07-26
"83","Guinea",1,2015-08-02
"84","Guinea",2,2015-08-09
"85","Guinea",3,2015-08-16
"86","Guinea",3,2015-08-23
"87","Guinea",2,2015-08-30
"88","Guinea",1,2015-09-06
"89","Guinea",0,2015-09-13
"90","Guinea",2,2015-09-20
"91","Guinea",4,2015-09-27
"92","Guinea",0,2015-10-04
"93","Guinea",0,2015-10-11
"94","Guinea",3,2015-10-18
"95","Guinea",3,2015-10-25
"96","Guinea",1,2015-11-01
"97","Guinea",0,2015-11-08
"98","Guinea",0,2015-11-15
"99","Guinea",0,2015-11-22
"100","Guinea",0,2015-11-29
"101","Guinea",0,2015-12-06
"102","Guinea",0,2015-12-13
"103","Guinea",0,2015-12-20
"104","Guinea",0,2015-12-27
"105","Guinea",0,2015-12-28
"106","Guinea",0,2016-01-10
"107","Guinea",0,2016-01-17
"108","Guinea",0,2016-01-24
"109","Guinea",0,2016-01-31
"110","Guinea",0,2016-02-07
"111","Guinea",0,2016-02-14
"112","Guinea",0,2016-02-21
"113","Guinea",0,2016-02-28
"114","Guinea",0,2016-03-06
"115","Guinea",0,2016-03-13
"116","Guinea",0,2016-03-20
"117","Guinea",0,2016-03-27
"118","Guinea",0,2016-04-03
"119","Guinea",0,2016-04-10
"120","Guinea",0,2016-04-17
"121","Guinea",0,2016-04-24
"122","Guinea",0,2016-05-01
"123","Guinea",0,2016-05-08
