"","Country","Numeric","epi_week"
"1","Liberia",NA,2013-12-30
"2","Liberia",NA,2014-01-12
"3","Liberia",NA,2014-01-19
"4","Liberia",NA,2014-01-26
"5","Liberia",NA,2014-02-02
"6","Liberia",NA,2014-02-09
"7","Liberia",NA,2014-02-16
"8","Liberia",NA,2014-02-23
"9","Liberia",NA,2014-03-02
"10","Liberia",NA,2014-03-09
"11","Liberia",NA,2014-03-16
"12","Liberia",1,2014-03-23
"13","Liberia",1,2014-03-30
"14","Liberia",2,2014-04-06
"15","Liberia",0,2014-04-13
"16","Liberia",0,2014-04-20
"17","Liberia",0,2014-04-27
"18","Liberia",1,2014-05-04
"19","Liberia",4,2014-05-11
"20","Liberia",0,2014-05-18
"21","Liberia",1,2014-05-25
"22","Liberia",0,2014-06-01
"23","Liberia",3,2014-06-08
"24","Liberia",17,2014-06-15
"25","Liberia",28,2014-06-22
"26","Liberia",28,2014-06-29
"27","Liberia",22,2014-07-06
"28","Liberia",33,2014-07-13
"29","Liberia",27,2014-07-20
"30","Liberia",84,2014-07-27
"31","Liberia",84,2014-08-03
"32","Liberia",161,2014-08-10
"33","Liberia",219,2014-08-17
"34","Liberia",344,2014-08-24
"35","Liberia",334,2014-08-31
"36","Liberia",364,2014-09-07
"37","Liberia",320,2014-09-14
"38","Liberia",311,2014-09-21
"39","Liberia",322,2014-09-28
"40","Liberia",212,2014-10-05
"41","Liberia",184,2014-10-12
"42","Liberia",128,2014-10-19
"43","Liberia",74,2014-10-26
"44","Liberia",91,2014-11-02
"45","Liberia",101,2014-11-09
"46","Liberia",86,2014-11-16
"47","Liberia",59,2014-11-23
"48","Liberia",55,2014-11-30
"49","Liberia",55,2014-12-07
"50","Liberia",38,2014-12-14
"51","Liberia",19,2014-12-21
"52","Liberia",33,2014-12-28
"53","Liberia",8,2014-12-29
"54","Liberia",4,2015-01-11
"55","Liberia",12,2015-01-18
"56","Liberia",6,2015-01-25
"57","Liberia",7,2015-02-01
"58","Liberia",3,2015-02-08
"59","Liberia",8,2015-02-15
"60","Liberia",1,2015-02-22
"61","Liberia",0,2015-03-01
"62","Liberia",1,2015-03-08
"63","Liberia",0,2015-03-15
"64","Liberia",1,2015-03-22
"65","Liberia",0,2015-03-29
"66","Liberia",NA,2015-04-05
"67","Liberia",NA,2015-04-12
"68","Liberia",NA,2015-04-19
"69","Liberia",NA,2015-04-26
"70","Liberia",NA,2015-05-03
"71","Liberia",NA,2015-05-10
"72","Liberia",NA,2015-05-17
"73","Liberia",NA,2015-05-24
"74","Liberia",NA,2015-05-31
"75","Liberia",NA,2015-06-07
"76","Liberia",NA,2015-06-14
"77","Liberia",NA,2015-06-21
"78","Liberia",NA,2015-06-28
"79","Liberia",NA,2015-07-05
"80","Liberia",NA,2015-07-12
"81","Liberia",NA,2015-07-19
"82","Liberia",NA,2015-07-26
"83","Liberia",NA,2015-08-02
"84","Liberia",NA,2015-08-09
"85","Liberia",NA,2015-08-16
"86","Liberia",NA,2015-08-23
"87","Liberia",NA,2015-08-30
"88","Liberia",NA,2015-09-06
"89","Liberia",NA,2015-09-13
"90","Liberia",NA,2015-09-20
"91","Liberia",NA,2015-09-27
"92","Liberia",NA,2015-10-04
"93","Liberia",NA,2015-10-11
"94","Liberia",NA,2015-10-18
"95","Liberia",NA,2015-10-25
"96","Liberia",NA,2015-11-01
"97","Liberia",NA,2015-11-08
"98","Liberia",NA,2015-11-15
"99","Liberia",NA,2015-11-22
"100","Liberia",NA,2015-11-29
"101","Liberia",NA,2015-12-06
"102","Liberia",NA,2015-12-13
"103","Liberia",NA,2015-12-20
"104","Liberia",NA,2015-12-27
"105","Liberia",NA,2015-12-28
"106","Liberia",NA,2016-01-10
"107","Liberia",NA,2016-01-17
"108","Liberia",NA,2016-01-24
"109","Liberia",NA,2016-01-31
"110","Liberia",NA,2016-02-07
"111","Liberia",NA,2016-02-14
"112","Liberia",NA,2016-02-21
"113","Liberia",NA,2016-02-28
"114","Liberia",NA,2016-03-06
"115","Liberia",NA,2016-03-13
"116","Liberia",NA,2016-03-20
"117","Liberia",NA,2016-03-27
"118","Liberia",NA,2016-04-03
"119","Liberia",NA,2016-04-10
"120","Liberia",NA,2016-04-17
"121","Liberia",NA,2016-04-24
"122","Liberia",NA,2016-05-01
"123","Liberia",NA,2016-05-08
